…
``` r
weather_nest |> pull(name)
```

    ## [1] "CentralPark_NY" "Molokai_HI"     "Waterhole_WA"

``` r
weather_nest |> pull(data)
```

    ## [[1]]
    ## # A tibble: 730 × 4
    ##    date        prcp  tmax  tmin
    ##    <date>     <dbl> <dbl> <dbl>
    ##  1 2021-01-01   157   4.4   0.6
    ##  2 2021-01-02    13  10.6   2.2
    ##  3 2021-01-03    56   3.3   1.1
    ##  4 2021-01-04     5   6.1   1.7
    ##  5 2021-01-05     0   5.6   2.2
    ##  6 2021-01-06     0   5     1.1
    ##  7 2021-01-07     0   5    -1  
    ##  8 2021-01-08     0   2.8  -2.7
    ##  9 2021-01-09     0   2.8  -4.3
    ## 10 2021-01-10     0   5    -1.6
    ## # ℹ 720 more rows
    ## 
    ## [[2]]
    ## # A tibble: 730 × 4
    ##    date        prcp  tmax  tmin
    ##    <date>     <dbl> <dbl> <dbl>
    ##  1 2021-01-01     0  27.8  22.2
    ##  2 2021-01-02     0  28.3  23.9
    ##  3 2021-01-03     0  28.3  23.3
    ##  4 2021-01-04     0  30    18.9
    ##  5 2021-01-05     0  28.9  21.7
    ##  6 2021-01-06     0  27.8  20  
    ##  7 2021-01-07     0  29.4  21.7
    ##  8 2021-01-08     0  28.3  18.3
    ##  9 2021-01-09     0  27.8  18.9
    ## 10 2021-01-10     0  28.3  18.9
    ## # ℹ 720 more rows
    ## 
    ## [[3]]
    ## # A tibble: 730 × 4
    ##    date        prcp  tmax  tmin
    ##    <date>     <dbl> <dbl> <dbl>
    ##  1 2021-01-01   254   3.2   0  
    ##  2 2021-01-02   152   0.9  -3.2
    ##  3 2021-01-03     0   0.2  -4.2
    ##  4 2021-01-04   559   0.9  -3.2
    ##  5 2021-01-05    25   0.5  -3.3
    ##  6 2021-01-06    51   0.8  -4.8
    ##  7 2021-01-07     0   0.2  -5.8
    ##  8 2021-01-08    25   0.5  -8.3
    ##  9 2021-01-09     0   0.1  -7.7
    ## 10 2021-01-10   203   0.9  -0.1
    ## # ℹ 720 more rows

``` r
weather_nest$data[[1]]
```

    ## # A tibble: 730 × 4
    ##    date        prcp  tmax  tmin
    ##    <date>     <dbl> <dbl> <dbl>
    ##  1 2021-01-01   157   4.4   0.6
    ##  2 2021-01-02    13  10.6   2.2
    ##  3 2021-01-03    56   3.3   1.1
    ##  4 2021-01-04     5   6.1   1.7
    ##  5 2021-01-05     0   5.6   2.2
    ##  6 2021-01-06     0   5     1.1
    ##  7 2021-01-07     0   5    -1  
    ##  8 2021-01-08     0   2.8  -2.7
    ##  9 2021-01-09     0   2.8  -4.3
    ## 10 2021-01-10     0   5    -1.6
    ## # ℹ 720 more rows

``` r
unnest(weather_nest, cols = data) #unnest
```

    ## # A tibble: 2,190 × 6
    ##    name           id          date        prcp  tmax  tmin
    ##    <chr>          <chr>       <date>     <dbl> <dbl> <dbl>
    ##  1 CentralPark_NY USW00094728 2021-01-01   157   4.4   0.6
    ##  2 CentralPark_NY USW00094728 2021-01-02    13  10.6   2.2
    ##  3 CentralPark_NY USW00094728 2021-01-03    56   3.3   1.1
    ##  4 CentralPark_NY USW00094728 2021-01-04     5   6.1   1.7
    ##  5 CentralPark_NY USW00094728 2021-01-05     0   5.6   2.2
    ##  6 CentralPark_NY USW00094728 2021-01-06     0   5     1.1
    ##  7 CentralPark_NY USW00094728 2021-01-07     0   5    -1  
    ##  8 CentralPark_NY USW00094728 2021-01-08     0   2.8  -2.7
    ##  9 CentralPark_NY USW00094728 2021-01-09     0   2.8  -4.3
    ## 10 CentralPark_NY USW00094728 2021-01-10     0   5    -1.6
    ## # ℹ 2,180 more rows
…
